\relax 
\@writefile{toc}{\contentsline {section}{\numberline {1}Wst\IeC {\k e}p i informacje og\IeC {\'o}lne}{2}}
\@writefile{toc}{\contentsline {section}{\numberline {2}Rodzaje zaimplementowanych algorytm\IeC {\'o}w i ich z\IeC {\l }o\IeC {\.z}ono\IeC {\'s}ci obliczeniowe na podstawie literatury}{2}}
\@writefile{toc}{\contentsline {section}{\numberline {3}Plan eksperymentu}{3}}
\@writefile{toc}{\contentsline {subsection}{\numberline {3.1}Metoda tworzenia grafu}{3}}
\@writefile{toc}{\contentsline {section}{\numberline {4}Przyk\IeC {\l }ady praktyczne}{4}}
\@writefile{toc}{\contentsline {subsection}{\numberline {4.1}Algorytm przegl\IeC {\k a}du zupe\IeC {\l }nego (ang. Brute Force)}{4}}
\@writefile{lof}{\contentsline {figure}{\numberline {1}{\ignorespaces Graf i macierz}}{4}}
\@writefile{toc}{\contentsline {subsection}{\numberline {4.2}Algorytm podzia\IeC {\l }u i ogranicze\IeC {\'n} (ang. Branch and Bound)}{5}}
\@writefile{toc}{\contentsline {subsection}{\numberline {4.3}Algorytm programowania dynamicznego (ang. Dynamic Programming)}{9}}
\@writefile{toc}{\contentsline {section}{\numberline {5}Opis implementacji algorytm\IeC {\'o}w}{12}}
\@writefile{toc}{\contentsline {subsection}{\numberline {5.1}Algorytm przegl\IeC {\k a}du zupe\IeC {\l }nego (ang. Brute Force)}{12}}
\@writefile{toc}{\contentsline {subsection}{\numberline {5.2}Algorytm podzia\IeC {\l }u i ogranicze\IeC {\'n} (ang. Branch and Bound)}{12}}
\@writefile{toc}{\contentsline {subsection}{\numberline {5.3}Algorytm programowania dynamicznego (ang. Dynamic Programming)}{13}}
\@writefile{toc}{\contentsline {section}{\numberline {6}Zestawienie wynik\IeC {\'o}w}{14}}
\@writefile{toc}{\contentsline {section}{\numberline {7}Wnioski}{16}}
